%YAML 1.1
%TAG !u! tag:unity3d.com,2011:
--- !u!114 &11400000
MonoBehaviour:
  m_ObjectHideFlags: 0
  m_CorrespondingSourceObject: {fileID: 0}
  m_PrefabInstance: {fileID: 0}
  m_PrefabAsset: {fileID: 0}
  m_GameObject: {fileID: 0}
  m_Enabled: 1
  m_EditorHideFlags: 0
  m_Script: {fileID: 11500000, guid: bb90838f07a7aee4c87e2e54af18f2e9, type: 3}
  m_Name: DebugValue
  m_EditorClassIdentifier: 
  m_valueDebugLevel: 0
  m_colorsDebug:
  - {r: 1, g: 0.5195817, b: 0, a: 0}
  - {r: 0.5047503, g: 0.37169808, b: 1, a: 0}
  - {r: 0.4716981, g: 0.4716981, b: 0.4716981, a: 0}
