{
  "name": "m21-cerutti.ClapClapEvent.Editor",
  "rootNamespace": "",
  "references": [
    "Unity.InputSystem",
    "m21-cerutti.BaseUtilityScripting.Editor",
    "m21-cerutti.ClapClapEvent"
  ],
  "includePlatforms": [
    "Editor"
  ],
  "excludePlatforms": [],
  "allowUnsafeCode": false,
  "overrideReferences": false,
  "precompiledReferences": [],
  "autoReferenced": true,
  "defineConstraints": [],
  "versionDefines": [],
  "noEngineReferences": false
}